{"StatusCode":200,"Timestamp":"11:23:14 AM","Path":"/api/v1/flights/search/oneway","Message":"Tìm kiếm chuyến bay 1 chiều thành công","Data":{"searchId":"search_1764501790223_1a5ycu0wb","totalResults":86,"gdsSource":"MULTI","flights":[{"id":"sabre_1_7c8rv1r2v","gdsSearchId":"REQ-1764501790754-Z6TI2AO","flightNumber":"VJ641","airline":"VJ","airlineName":"VietJet Air","aircraft":"321","aircraftName":"","status":"SCHEDULED","price":1090000,"currency":"VND","duration":null,"distance":373,"stops":0,"segments":[{"id":"13_1","segmentNumber":1,"flightNumber":"VJ641","airline":"VJ","aircraft":"321","departure":{"code":"DAD","name":"Đà Nẵng","city":"Đà Nẵng","country":"VIỆT NAM","timezone":"","terminal":"1"},"arrival":{"code":"SGN","name":"Tp. Hồ Chí Minh","city":"Tp. Hồ Chí Minh","country":"VIỆT NAM","timezone":"","terminal":"1"},"scheduledDeparture":null,"scheduledArrival":null,"duration":85,"distance":373,"terminal":"1","gate":"","status":"SCHEDULED","cabinClass":"Y"}],"departure":{"code":"DAD","name":"Đà Nẵng","city":"Đà Nẵng","country":"VIỆT NAM","timezone":"","terminal":"1"},"arrival":{"code":"SGN","name":"Tp. Hồ Chí Minh","city":"Tp. Hồ Chí Minh","country":"VIỆT NAM","timezone":"","terminal":"1"},"availableSeats":0,"cabinClass":"Y","baggage":{"carryOn":{"weight":7,"pieces":1},"checked":{"weight":20,"pieces":1,"included":true}},"amenities":[],"fareRules":[],"gdsSource":"SABRE","isTransit":false,"additionalInfo":{"itineraryId":1,"legIds":[13]}},{"id":"sabre_2_380xtmct1","gdsSearchId":"REQ-1764501790754-Z6TI2AO","flightNumber":"VJ649","airline":"VJ","airlineName":"VietJet Air","aircraft":"321","aircraftName":"","status":"SCHEDULED","price":1090000,"currency":"VND","duration":null,"distance":373,"stops":0,"segments":[{"id":"1_15","segmentNumber":1,"flightNumber":"VJ649","airline":"VJ","aircraft":"321","departure":{"code":"DAD","name":"Đà Nẵng","city":"Đà Nẵng","country":"VIỆT NAM","timezone":"","terminal":"1"},"arrival":{"code":"SGN","name":"Tp. Hồ Chí Minh","city":"Tp. Hồ Chí Minh","country":"VIỆT NAM","timezone":"","terminal":"1"},"scheduledDeparture":null,"scheduledArrival":null,"duration":85,"distance":373,"terminal":"1","gate":"","status":"SCHEDULED","cabinClass":"Y"}],"departure":{"code":"DAD","name":"Đà Nẵng","city":"Đà Nẵng","country":"VIỆT NAM","timezone":"","terminal":"1"},"arrival":{"code":"SGN","name":"Tp. Hồ Chí Minh","city":"Tp. Hồ Chí Minh","country":"VIỆT NAM","timezone":"","terminal":"1"},"availableSeats":0,"cabinClass":"Y","baggage":{"carryOn":{"weight":7,"pieces":1},"checked":{"weight":20,"pieces":1,"included":true}},"amenities":[],"fareRules":[],"gdsSource":"SABRE","isTransit":false,"additionalInfo":{"itineraryId":2,"legIds":[1]}},{"id":"sabre_3_ezuvzd769","gdsSearchId":"REQ-1764501790754-Z6TI2AO","flightNumber":"VJ647","airline":"VJ","airlineName":"VietJet Air","aircraft":"320","aircraftName":"","status":"SCHEDULED","price":1090000,"currency":"VND","duration":null,"distance":373,"stops":0,"segments":[{"id":"7_8","segmentNumber":1,"flightNumber":"VJ647","airline":"VJ","aircraft":"320","departure":{"code":"DAD","name":"Đà Nẵng","city":"Đà Nẵng","country":"VIỆT NAM","timezone":"","terminal":"1"},"arrival":{"code":"SGN","name":"Tp. Hồ Chí Minh","city":"Tp. Hồ Chí Minh","country":"VIỆT NAM","timezone":"","terminal":"1"},"scheduledDeparture":null,"scheduledArrival":null,"duration":85,"distance":373,"terminal":"1","gate":"","status":"SCHEDULED","cabinClass":"Y"}],"departure":{"code":"DAD","name":"Đà Nẵng","city":"Đà Nẵng","country":"VIỆT NAM","timezone":"","terminal":"1"},"arrival":{"code":"SGN","name":"Tp. Hồ Chí Minh","city":"Tp. Hồ Chí Minh","country":"VIỆT NAM","timezone":"","terminal":"1"},"availableSeats":0,"cabinClass":"Y","baggage":{"carryOn":{"weight":7,"pieces":1},"checked":{"weight":20,"pieces":1,"included":true}},"amenities":[],"fareRules":[],"gdsSource":"SABRE","isTransit":false,"additionalInfo":{"itineraryId":3,"legIds":[7]}}],"pagination":{"page":1,"limit":3,"totalResults":86,"totalPages":29,"hasNext":true,"hasPrevious":false},"filters":{},"sorting":{"by":"PRICE","order":"ASC","options":["PRICE","DURATION","DEPARTURE_TIME","ARRIVAL_TIME","STOPS"]}},"Errors":null,"RequestId":"req_1764501790217_7dbsgwn2o","TotalDuration":4040}